{
  "project_info": {
    "project_number": "997276933696",
    "firebase_url": "https://bdpapayapp.firebaseio.com",
    "project_id": "bdpapayapp",
    "storage_bucket": "bdpapayapp.appspot.com"
  },
  "client": [
    {
      "client_info": {
        "mobilesdk_app_id": "1:997276933696:android:fecadb0ac507ae263b09a5",
        "android_client_info": {
          "package_name": "com.example.prototipo3"
        }
      },
      "oauth_client": [
        {
          "client_id": "997276933696-76tk4ndmnpl21uhedt3ni4d5einpghr7.apps.googleusercontent.com",
          "client_type": 1,
          "android_info": {
            "package_name": "com.example.prototipo3",
            "certificate_hash": "37ce8c4ee05517f17a06c2d9d6464e19719a4128"
          }
        },
        {
          "client_id": "997276933696-nk4s676eto54p47blhsqbs431bi5gham.apps.googleusercontent.com",
          "client_type": 3
        }
      ],
      "api_key": [
        {
          "current_key": "AIzaSyD65hYfsjWuQYlBgr8c4-44ExsWVxWCA4U"
        }
      ],
      "services": {
        "appinvite_service": {
          "other_platform_oauth_client": [
            {
              "client_id": "997276933696-nk4s676eto54p47blhsqbs431bi5gham.apps.googleusercontent.com",
              "client_type": 3
            },
            {
              "client_id": "997276933696-odebg2ko5bt6b89d384gtgcqft3hra92.apps.googleusercontent.com",
              "client_type": 2,
              "ios_info": {
                "bundle_id": "com.example.prototipoiOS"
              }
            }
          ]
        }
      }
    }
  ],
  "configuration_version": "1"
}